examples/AlgoBlock/AlgoWave.vcd
$date
     Mar 30, 2016       12:13:59
$end

$version
 SystemC 2.3.1-Accellera --- Mar 10 2016 13:12:28
$end

$timescale
     1 ns
$end

$scope module SystemC $end
$var wire    1  aaaaa  clock       $end
$var wire    1  aaaab  reset       $end
$var wire   32  aaaac  in_reg2 [31:0]  $end
$var wire   32  aaaad  in_coef0 [31:0]  $end
$var wire   16  aaaae  in_data [15:0]  $end
$var wire    1  aaaaf  data_valid       $end
$var wire    1  aaaag  data_ack       $end
$var wire   16  aaaah  out_data [15:0]  $end
$var wire    1  aaaai  data_req       $end
$var wire    1  aaaaj  data_ready       $end
$upscope $end
$enddefinitions  $end

$comment
All initial values are dumped below at time 0 sec = 0 timescale units.
$end

$dumpvars
1aaaaa
1aaaab
b10 aaaac
b10010110 aaaad
b0 aaaae
0aaaaf
0aaaag
b0 aaaah
0aaaai
0aaaaj
$end

#15
0aaaaa

#30
1aaaaa

#45
0aaaaa

#60
1aaaaa

#75
0aaaaa

#90
1aaaaa

#105
0aaaaa

#120
1aaaaa

#135
0aaaaa

#150
1aaaaa
0aaaab
1aaaai

#165
0aaaaa

#180
1aaaaa
1aaaaf

#195
0aaaaa

#210
1aaaaa
0aaaai

#225
0aaaaa

#240
1aaaaa

#255
0aaaaa

#270
1aaaaa

#285
0aaaaa

#300
1aaaaa

#315
0aaaaa

#330
1aaaaa
0aaaaf

#345
0aaaaa

#360
1aaaaa

#375
0aaaaa

#390
1aaaaa
1aaaai

#405
0aaaaa

#420
1aaaaa
b1100101111000 aaaae
1aaaaf

#435
0aaaaa

#450
1aaaaa
0aaaai

#465
0aaaaa

#480
1aaaaa

#495
0aaaaa

#510
1aaaaa

#525
0aaaaa

#540
1aaaaa

#555
0aaaaa

#570
1aaaaa
0aaaaf

#585
0aaaaa

#600
1aaaaa

#615
0aaaaa

#630
1aaaaa
1aaaai

#645
0aaaaa

#660
1aaaaa
b10100010111110 aaaae
1aaaaf

#675
0aaaaa

#690
1aaaaa
0aaaai

#705
0aaaaa

#720
1aaaaa

#735
0aaaaa

#750
1aaaaa

#765
0aaaaa

#780
1aaaaa

#795
0aaaaa

#810
1aaaaa
0aaaaf

#825
0aaaaa

#840
1aaaaa

#855
0aaaaa

#870
1aaaaa
1aaaai

#885
0aaaaa

#900
1aaaaa
b10100010010011 aaaae
1aaaaf

#915
0aaaaa

#930
1aaaaa
0aaaai

#945
0aaaaa

#960
1aaaaa

#975
0aaaaa

#990
1aaaaa

#1005
0aaaaa

#1020
1aaaaa

#1035
0aaaaa

#1050
1aaaaa
0aaaaf

#1065
0aaaaa

#1080
1aaaaa

#1095
0aaaaa

#1110
1aaaaa
1aaaai

#1125
0aaaaa

#1140
1aaaaa
b1101100110100 aaaae
1aaaaf

#1155
0aaaaa

#1170
1aaaaa
0aaaai

#1185
0aaaaa

#1200
1aaaaa

#1215
0aaaaa

#1230
1aaaaa

#1245
0aaaaa

#1260
1aaaaa

#1275
0aaaaa

#1290
1aaaaa
0aaaaf

#1305
0aaaaa

#1320
1aaaaa

#1335
0aaaaa

#1350
1aaaaa
1aaaai

#1365
0aaaaa

#1380
1aaaaa
b100101000010 aaaae
1aaaaf

#1395
0aaaaa

#1410
1aaaaa
0aaaai

#1425
0aaaaa

#1440
1aaaaa

#1455
0aaaaa

#1470
1aaaaa

#1485
0aaaaa

#1500
1aaaaa

#1515
0aaaaa

#1530
1aaaaa
0aaaaf

#1545
0aaaaa

#1560
1aaaaa

#1575
0aaaaa

#1590
1aaaaa
1aaaai

#1605
0aaaaa

#1620
1aaaaa
b1111110110001110 aaaae
1aaaaf

#1635
0aaaaa

#1650
1aaaaa
0aaaai

#1665
0aaaaa

#1680
1aaaaa

#1695
0aaaaa

#1710
1aaaaa

#1725
0aaaaa

#1740
1aaaaa

#1755
0aaaaa

#1770
1aaaaa
0aaaaf

#1785
0aaaaa

#1800
1aaaaa

#1815
0aaaaa

#1830
1aaaaa
1aaaai

#1845
0aaaaa

#1860
1aaaaa
b1111111111001110 aaaae
1aaaaf

#1875
0aaaaa

#1890
1aaaaa
0aaaai

#1905
0aaaaa

#1920
1aaaaa

#1935
0aaaaa

#1950
1aaaaa

#1965
0aaaaa

#1980
1aaaaa

#1995
0aaaaa

#2010
1aaaaa
0aaaaf

#2025
0aaaaa

#2040
1aaaaa

#2055
0aaaaa

#2070
1aaaaa

#2085
0aaaaa

#2100
1aaaaa

#2115
0aaaaa

#2130
1aaaaa

#2145
0aaaaa

#2160
1aaaaa

#2175
0aaaaa

#2190
1aaaaa

#2205
0aaaaa

#2220
1aaaaa

#2235
0aaaaa

#2250
1aaaaa

#2265
0aaaaa

#2280
1aaaaa

#2295
0aaaaa

#2310
1aaaaa

#2325
0aaaaa

#2340
1aaaaa

#2355
0aaaaa

#2370
1aaaaa

#2385
0aaaaa

#2400
1aaaaa

#2415
0aaaaa

#2430
1aaaaa

#2445
0aaaaa

#2460
1aaaaa

#2475
0aaaaa

#2490
1aaaaa

#2505
0aaaaa

#2520
1aaaaa

#2535
0aaaaa

#2550
1aaaaa

#2565
0aaaaa

#2580
1aaaaa
1aaaaj

#2595
0aaaaa

#2610
1aaaaa
1aaaag

#2625
0aaaaa

#2640
1aaaaa
0aaaaj

#2655
0aaaaa

#2670
1aaaaa

#2685
0aaaaa

#2700
1aaaaa

#2715
0aaaaa

#2730
1aaaaa

#2745
0aaaaa

#2760
1aaaaa
0aaaag

#2775
0aaaaa

#2790
1aaaaa

#2805
0aaaaa

#2820
1aaaaa
b11101 aaaah
1aaaaj

#2835
0aaaaa

#2850
1aaaaa
1aaaag

#2865
0aaaaa

#2880
1aaaaa
0aaaaj

#2895
0aaaaa

#2910
1aaaaa

#2925
0aaaaa

#2940
1aaaaa

#2955
0aaaaa

#2970
1aaaaa

#2985
0aaaaa

#3000
1aaaaa
0aaaag

#3015
0aaaaa

#3030
1aaaaa

#3045
0aaaaa

#3060
1aaaaa
b10011111 aaaah
1aaaaj

#3075
0aaaaa

#3090
1aaaaa
1aaaag

#3105
0aaaaa

#3120
1aaaaa
0aaaaj

#3135
0aaaaa

#3150
1aaaaa

#3165
0aaaaa

#3180
1aaaaa

#3195
0aaaaa

#3210
1aaaaa

#3225
0aaaaa

#3240
1aaaaa
0aaaag

#3255
0aaaaa

#3270
1aaaaa

#3285
0aaaaa

#3300
1aaaaa
b110110011 aaaah
1aaaaj

#3315
0aaaaa

#3330
1aaaaa
1aaaag

#3345
0aaaaa

#3360
1aaaaa
0aaaaj

#3375
0aaaaa

#3390
1aaaaa

#3405
0aaaaa

#3420
1aaaaa

#3435
0aaaaa

#3450
1aaaaa

#3465
0aaaaa

#3480
1aaaaa
0aaaag

#3495
0aaaaa

#3510
1aaaaa

#3525
0aaaaa

#3540
1aaaaa
b1100111011 aaaah
1aaaaj

#3555
0aaaaa

#3570
1aaaaa
1aaaag

#3585
0aaaaa

#3600
1aaaaa
0aaaaj

#3615
0aaaaa

#3630
1aaaaa

#3645
0aaaaa

#3660
1aaaaa

#3675
0aaaaa

#3690
1aaaaa

#3705
0aaaaa

#3720
1aaaaa
0aaaag

#3735
0aaaaa

#3750
1aaaaa

#3765
0aaaaa

#3780
1aaaaa
b10011100110 aaaah
1aaaaj

#3795
0aaaaa

#3810
1aaaaa
1aaaag

#3825
0aaaaa

#3840
1aaaaa
0aaaaj

#3855
0aaaaa

#3870
1aaaaa

#3885
0aaaaa

#3900
1aaaaa

#3915
0aaaaa

#3930
1aaaaa

#3945
0aaaaa

#3960
1aaaaa
0aaaag

#3975
0aaaaa

#3990
1aaaaa

#4005
0aaaaa

#4020
1aaaaa
b11001011110 aaaah
1aaaaj

#4035
0aaaaa

#4050
1aaaaa
1aaaag

#4065
0aaaaa

#4080
1aaaaa
0aaaaj

#4095
0aaaaa

#4110
1aaaaa

#4125
0aaaaa

#4140
1aaaaa

#4155
0aaaaa

#4170
1aaaaa

#4185
0aaaaa

#4200
1aaaaa
0aaaag

#4215
0aaaaa

#4230
1aaaaa

#4245
0aaaaa

#4260
1aaaaa
b11101111000 aaaah
1aaaaj

#4275
0aaaaa

#4290
1aaaaa
1aaaag

#4305
0aaaaa

#4320
1aaaaa
0aaaaj

#4335
0aaaaa

#4350
1aaaaa

#4365
0aaaaa

#4380
1aaaaa

#4395
0aaaaa

#4410
1aaaaa

#4425
0aaaaa

#4440
1aaaaa
0aaaag

#4455
0aaaaa

#4470
1aaaaa

#4485
0aaaaa

#4500
1aaaaa

#4515
0aaaaa

#4530
1aaaaa
1aaaai

#4545
0aaaaa

#4560
1aaaaa
b1000011100010 aaaae
1aaaaf

#4575
0aaaaa

#4590
1aaaaa
0aaaai

#4605
0aaaaa

#4620
1aaaaa

#4635
0aaaaa

#4650
1aaaaa

#4665
0aaaaa

#4680
1aaaaa

#4695
0aaaaa

#4710
1aaaaa
0aaaaf

#4725
0aaaaa

#4740
1aaaaa

#4755
0aaaaa

#4770
1aaaaa
1aaaai

#4785
0aaaaa

#4800
1aaaaa
b10101001011110 aaaae
1aaaaf

#4815
0aaaaa

#4830
1aaaaa
0aaaai

#4845
0aaaaa

#4860
1aaaaa

#4875
0aaaaa

#4890
1aaaaa

#4905
0aaaaa

#4920
1aaaaa

#4935
0aaaaa

#4950
1aaaaa
0aaaaf

#4965
0aaaaa

#4980
1aaaaa

#4995
0aaaaa

#5010
1aaaaa
1aaaai

#5025
0aaaaa

#5040
1aaaaa
b100000110101100 aaaae
1aaaaf

#5055
0aaaaa

#5070
1aaaaa
0aaaai

#5085
0aaaaa

#5100
1aaaaa

#5115
0aaaaa

#5130
1aaaaa

#5145
0aaaaa

#5160
1aaaaa

#5175
0aaaaa

#5190
1aaaaa
0aaaaf

#5205
0aaaaa

#5220
1aaaaa

#5235
0aaaaa

#5250
1aaaaa
1aaaai

#5265
0aaaaa

#5280
1aaaaa
b100110100101010 aaaae
1aaaaf

#5295
0aaaaa

#5310
1aaaaa
0aaaai

#5325
0aaaaa

#5340
1aaaaa

#5355
0aaaaa

#5370
1aaaaa

#5385
0aaaaa

#5400
1aaaaa

#5415
0aaaaa

#5430
1aaaaa
0aaaaf

#5445
0aaaaa

#5460
1aaaaa

#5475
0aaaaa

#5490
1aaaaa
1aaaai

#5505
0aaaaa

#5520
1aaaaa
b100100011011110 aaaae
1aaaaf

#5535
0aaaaa

#5550
1aaaaa
0aaaai

#5565
0aaaaa

#5580
1aaaaa

#5595
0aaaaa

#5610
1aaaaa

#5625
0aaaaa

#5640
1aaaaa

#5655
0aaaaa

#5670
1aaaaa
0aaaaf

#5685
0aaaaa

#5700
1aaaaa

#5715
0aaaaa

#5730
1aaaaa
1aaaai

#5745
0aaaaa

#5760
1aaaaa
b11100001011111 aaaae
1aaaaf

#5775
0aaaaa

#5790
1aaaaa
0aaaai

#5805
0aaaaa

#5820
1aaaaa

#5835
0aaaaa

#5850
1aaaaa

#5865
0aaaaa

#5880
1aaaaa

#5895
0aaaaa

#5910
1aaaaa
0aaaaf

#5925
0aaaaa

#5940
1aaaaa

#5955
0aaaaa

#5970
1aaaaa
1aaaai

#5985
0aaaaa

#6000
1aaaaa
b10010100010011 aaaae
1aaaaf

#6015
0aaaaa

#6030
1aaaaa
0aaaai

#6045
0aaaaa

#6060
1aaaaa

#6075
0aaaaa

#6090
1aaaaa

#6105
0aaaaa

#6120
1aaaaa

#6135
0aaaaa

#6150
1aaaaa
b11 aaaac
0aaaaf

#6165
0aaaaa

#6180
1aaaaa

#6195
0aaaaa

#6210
1aaaaa
1aaaai

#6225
0aaaaa

#6240
1aaaaa
b1100110011110 aaaae
1aaaaf

#6255
0aaaaa

#6270
1aaaaa
0aaaai

#6285
0aaaaa

#6300
1aaaaa

#6315
0aaaaa

#6330
1aaaaa

#6345
0aaaaa

#6360
1aaaaa

#6375
0aaaaa

#6390
1aaaaa
0aaaaf

#6405
0aaaaa

#6420
1aaaaa

#6435
0aaaaa

#6450
1aaaaa

#6465
0aaaaa

#6480
1aaaaa

#6495
0aaaaa

#6510
1aaaaa

#6525
0aaaaa

#6540
1aaaaa

#6555
0aaaaa

#6570
1aaaaa

#6585
0aaaaa

#6600
1aaaaa

#6615
0aaaaa

#6630
1aaaaa

#6645
0aaaaa

#6660
1aaaaa

#6675
0aaaaa

#6690
1aaaaa

#6705
0aaaaa

#6720
1aaaaa

#6735
0aaaaa

#6750
1aaaaa

#6765
0aaaaa

#6780
1aaaaa

#6795
0aaaaa

#6810
1aaaaa

#6825
0aaaaa

#6840
1aaaaa

#6855
0aaaaa

#6870
1aaaaa

#6885
0aaaaa

#6900
1aaaaa

#6915
0aaaaa

#6930
1aaaaa

#6945
0aaaaa

#6960
1aaaaa
b100001001011 aaaah
1aaaaj

#6975
0aaaaa

#6990
1aaaaa
1aaaag

#7005
0aaaaa

#7020
1aaaaa
0aaaaj

#7035
0aaaaa

#7050
1aaaaa

#7065
0aaaaa

#7080
1aaaaa

#7095
0aaaaa

#7110
1aaaaa

#7125
0aaaaa

#7140
1aaaaa
0aaaag

#7155
0aaaaa

#7170
1aaaaa

#7185
0aaaaa

#7200
1aaaaa
b100100101001 aaaah
1aaaaj

#7215
0aaaaa

#7230
1aaaaa
1aaaag

#7245
0aaaaa

#7260
1aaaaa
0aaaaj

#7275
0aaaaa

#7290
1aaaaa

#7305
0aaaaa

#7320
1aaaaa

#7335
0aaaaa

#7350
1aaaaa

#7365
0aaaaa

#7380
1aaaaa
0aaaag

#7395
0aaaaa

#7410
1aaaaa

#7425
0aaaaa

#7440
1aaaaa
b101001110111 aaaah
1aaaaj

#7455
0aaaaa

#7470
1aaaaa
1aaaag

#7485
0aaaaa

#7500
1aaaaa
0aaaaj

#7515
0aaaaa

#7530
1aaaaa

#7545
0aaaaa

#7560
1aaaaa

#7575
0aaaaa

#7590
1aaaaa

#7605
0aaaaa

#7620
1aaaaa
0aaaag

#7635
0aaaaa

#7650
1aaaaa
b10 aaaac

#7665
0aaaaa

#7680
1aaaaa
b110001111101 aaaah
1aaaaj

#7695
0aaaaa

#7710
1aaaaa
1aaaag

#7725
0aaaaa

#7740
1aaaaa
0aaaaj

#7755
0aaaaa

#7770
1aaaaa

#7785
0aaaaa

#7800
1aaaaa

#7815
0aaaaa

#7830
1aaaaa

#7845
0aaaaa

#7860
1aaaaa
0aaaag

#7875
0aaaaa

#7890
1aaaaa

#7905
0aaaaa

#7920
1aaaaa
b111101000001 aaaah
1aaaaj

#7935
0aaaaa

#7950
1aaaaa
1aaaag

#7965
0aaaaa

#7980
1aaaaa
0aaaaj

#7995
0aaaaa

#8010
1aaaaa

#8025
0aaaaa

#8040
1aaaaa

#8055
0aaaaa

#8070
1aaaaa

#8085
0aaaaa

#8100
1aaaaa
0aaaag

#8115
0aaaaa

#8130
1aaaaa

#8145
0aaaaa

#8160
1aaaaa
b1001010000011 aaaah
1aaaaj

#8175
0aaaaa

#8190
1aaaaa
1aaaag

#8205
0aaaaa

#8220
1aaaaa
0aaaaj

#8235
0aaaaa

#8250
1aaaaa

#8265
0aaaaa

#8280
1aaaaa

#8295
0aaaaa

#8310
1aaaaa

#8325
0aaaaa

#8340
1aaaaa
0aaaag

#8355
0aaaaa

#8370
1aaaaa

#8385
0aaaaa

#8400
1aaaaa
b1010111011010 aaaah
1aaaaj

#8415
0aaaaa

#8430
1aaaaa
1aaaag

#8445
0aaaaa

#8460
1aaaaa
0aaaaj

#8475
0aaaaa

#8490
1aaaaa

#8505
0aaaaa

#8520
1aaaaa

#8535
0aaaaa

#8550
1aaaaa

#8565
0aaaaa

#8580
1aaaaa
0aaaag

#8595
0aaaaa

#8610
1aaaaa

#8625
0aaaaa

#8640
1aaaaa
b1100011100100 aaaah
1aaaaj

#8655
0aaaaa

#8670
1aaaaa
1aaaag

#8685
0aaaaa

#8700
1aaaaa
0aaaaj

#8715
0aaaaa

#8730
1aaaaa

#8745
0aaaaa

#8760
1aaaaa

#8775
0aaaaa

#8790
1aaaaa

#8805
0aaaaa

#8820
1aaaaa
0aaaag

#8835
0aaaaa

#8850
1aaaaa

#8865
0aaaaa

#8880
1aaaaa

#8895
0aaaaa

#8910
1aaaaa
1aaaai

#8925
0aaaaa

#8940
1aaaaa
b1110010110100 aaaae
1aaaaf

#8955
0aaaaa

#8970
1aaaaa
0aaaai

#8985
0aaaaa

#9000
1aaaaa

#9015
0aaaaa

#9030
1aaaaa

#9045
0aaaaa

#9060
1aaaaa

#9075
0aaaaa

#9090
1aaaaa
0aaaaf

#9105
0aaaaa

#9120
1aaaaa

#9135
0aaaaa

#9150
1aaaaa
1aaaai

#9165
0aaaaa

#9180
1aaaaa
b10110111001111 aaaae
1aaaaf

#9195
0aaaaa

#9210
1aaaaa
0aaaai

#9225
0aaaaa

#9240
1aaaaa

#9255
0aaaaa

#9270
1aaaaa

#9285
0aaaaa

#9300
1aaaaa

#9315
0aaaaa

#9330
1aaaaa
0aaaaf

#9345
0aaaaa

#9360
1aaaaa

#9375
0aaaaa

#9390
1aaaaa
1aaaai

#9405
0aaaaa

#9420
1aaaaa
b100010101111000 aaaae
1aaaaf

#9435
0aaaaa

#9450
1aaaaa
0aaaai

#9465
0aaaaa

#9480
1aaaaa

#9495
0aaaaa

#9510
1aaaaa

#9525
0aaaaa

#9540
1aaaaa

#9555
0aaaaa

#9570
1aaaaa
0aaaaf

#9585
0aaaaa

#9600
1aaaaa

#9615
0aaaaa

#9630
1aaaaa
1aaaai

#9645
0aaaaa

#9660
1aaaaa
b101100011011110 aaaae
1aaaaf

#9675
0aaaaa

#9690
1aaaaa
0aaaai

#9705
0aaaaa

#9720
1aaaaa

#9735
0aaaaa

#9750
1aaaaa

#9765
0aaaaa

#9780
1aaaaa

#9795
0aaaaa

#9810
1aaaaa
0aaaaf

#9825
0aaaaa

#9840
1aaaaa

#9855
0aaaaa

#9870
1aaaaa
1aaaai

#9885
0aaaaa

#9900
1aaaaa
b101111100011110 aaaae
1aaaaf

#9915
0aaaaa

#9930
1aaaaa
0aaaai

#9945
0aaaaa

#9960
1aaaaa

#9975
0aaaaa

#9990
1aaaaa

#10005
0aaaaa

#10020
1aaaaa

#10035
0aaaaa

#10050
1aaaaa
0aaaaf

#10065
0aaaaa

#10080
1aaaaa

#10095
0aaaaa

#10110
1aaaaa
1aaaai

#10125
0aaaaa

#10140
1aaaaa
b101010110010101 aaaae
1aaaaf

#10155
0aaaaa

#10170
1aaaaa
0aaaai

#10185
0aaaaa

#10200
1aaaaa

#10215
0aaaaa

#10230
1aaaaa

#10245
0aaaaa

#10260
1aaaaa

#10275
0aaaaa

#10290
1aaaaa
0aaaaf

#10305
0aaaaa

#10320
1aaaaa

#10335
0aaaaa

#10350
1aaaaa
1aaaai

#10365
0aaaaa

#10380
1aaaaa
b100000100100011 aaaae
1aaaaf

#10395
0aaaaa

#10410
1aaaaa
0aaaai

#10425
0aaaaa

#10440
1aaaaa

#10455
0aaaaa

#10470
1aaaaa

#10485
0aaaaa

#10500
1aaaaa

#10515
0aaaaa

#10530
1aaaaa
0aaaaf

#10545
0aaaaa

#10560
1aaaaa

#10575
0aaaaa

#10590
1aaaaa
1aaaai

#10605
0aaaaa

#10620
1aaaaa
b10101111001111 aaaae
1aaaaf

#10635
0aaaaa

#10650
1aaaaa
0aaaai

#10665
0aaaaa

#10680
1aaaaa

#10695
0aaaaa

#10710
1aaaaa

#10725
0aaaaa

#10740
1aaaaa

#10755
0aaaaa

#10770
1aaaaa
0aaaaf

#10785
0aaaaa

#10800
1aaaaa

#10815
0aaaaa

#10830
1aaaaa

#10845
0aaaaa

#10860
1aaaaa

#10875
0aaaaa

#10890
1aaaaa

#10905
0aaaaa

#10920
1aaaaa

#10935
0aaaaa

#10950
1aaaaa

#10965
0aaaaa

#10980
1aaaaa

#10995
0aaaaa

#11010
1aaaaa

#11025
0aaaaa

#11040
1aaaaa

#11055
0aaaaa

#11070
1aaaaa

#11085
0aaaaa

#11100
1aaaaa

#11115
0aaaaa

#11130
1aaaaa

#11145
0aaaaa

#11160
1aaaaa

#11175
0aaaaa

#11190
1aaaaa

#11205
0aaaaa

#11220
1aaaaa

#11235
0aaaaa

#11250
1aaaaa

#11265
0aaaaa

#11280
1aaaaa

#11295
0aaaaa

#11310
1aaaaa

#11325
0aaaaa

#11340
1aaaaa
b1101101110011 aaaah
1aaaaj

#11355
0aaaaa

#11370
1aaaaa
1aaaag

#11385
0aaaaa

#11400
1aaaaa
0aaaaj

#11415
0aaaaa

#11430
1aaaaa

#11445
0aaaaa

#11460
1aaaaa

#11475
0aaaaa

#11490
1aaaaa

#11505
0aaaaa

#11520
1aaaaa
0aaaag

#11535
0aaaaa

#11550
1aaaaa

#11565
0aaaaa

#11580
1aaaaa
b1110110011111 aaaah
1aaaaj

#11595
0aaaaa

#11610
1aaaaa
1aaaag

#11625
0aaaaa

#11640
1aaaaa
0aaaaj

#11655
0aaaaa

#11670
1aaaaa

#11685
0aaaaa

#11700
1aaaaa

#11715
0aaaaa

#11730
1aaaaa

#11745
0aaaaa

#11760
1aaaaa
0aaaag

#11775
0aaaaa

#11790
1aaaaa

#11805
0aaaaa

#11820
1aaaaa
b1111110111000 aaaah
1aaaaj

#11835
0aaaaa

#11850
1aaaaa
1aaaag

#11865
0aaaaa

#11880
1aaaaa
0aaaaj

#11895
0aaaaa

#11910
1aaaaa

#11925
0aaaaa

#11940
1aaaaa

#11955
0aaaaa

#11970
1aaaaa

#11985
0aaaaa

#12000
1aaaaa
0aaaag

#12015
0aaaaa

#12030
1aaaaa

#12045
0aaaaa

#12060
1aaaaa
b10001000011010 aaaah
1aaaaj

#12075
0aaaaa

#12090
1aaaaa
1aaaag

#12105
0aaaaa

#12120
1aaaaa
0aaaaj

#12135
0aaaaa

#12150
1aaaaa

#12165
0aaaaa

#12180
1aaaaa

#12195
0aaaaa

#12210
1aaaaa

#12225
0aaaaa

#12240
1aaaaa
0aaaag

#12255
0aaaaa

#12270
1aaaaa

#12285
0aaaaa

#12300
1aaaaa
b10010011111101 aaaah
1aaaaj

#12315
0aaaaa

#12330
1aaaaa
1aaaag

#12345
0aaaaa

#12360
1aaaaa
0aaaaj

#12375
0aaaaa

#12390
1aaaaa

#12405
0aaaaa

#12420
1aaaaa

#12435
0aaaaa

#12450
1aaaaa

#12465
0aaaaa

#12480
1aaaaa
0aaaag

#12495
0aaaaa

#12510
1aaaaa

#12525
0aaaaa

#12540
1aaaaa
b10100001010110 aaaah
1aaaaj

#12555
0aaaaa

#12570
1aaaaa
1aaaag

#12585
0aaaaa

#12600
1aaaaa
0aaaaj

#12615
0aaaaa

#12630
1aaaaa

#12645
0aaaaa

#12660
1aaaaa

#12675
0aaaaa

#12690
1aaaaa

#12705
0aaaaa

#12720
1aaaaa
0aaaag

#12735
0aaaaa

#12750
1aaaaa

#12765
0aaaaa

#12780
1aaaaa
b10101111011000 aaaah
1aaaaj

#12795
0aaaaa

#12810
1aaaaa
1aaaag

#12825
0aaaaa

#12840
1aaaaa
0aaaaj

#12855
0aaaaa

#12870
1aaaaa

#12885
0aaaaa

#12900
1aaaaa

#12915
0aaaaa

#12930
1aaaaa

#12945
0aaaaa

#12960
1aaaaa
0aaaag

#12975
0aaaaa

#12990
1aaaaa

#13005
0aaaaa

#13020
1aaaaa
b10111100010111 aaaah
1aaaaj

#13035
0aaaaa

#13050
1aaaaa
1aaaag

#13065
0aaaaa

#13080
1aaaaa
0aaaaj

#13095
0aaaaa

#13110
1aaaaa

#13125
0aaaaa

#13140
1aaaaa

#13155
0aaaaa

#13170
1aaaaa

#13185
0aaaaa

#13200
1aaaaa
0aaaag

#13215
0aaaaa

#13230
1aaaaa

#13245
0aaaaa

#13260
1aaaaa

#13275
0aaaaa

#13290
1aaaaa
1aaaai

#13305
0aaaaa

#13320
1aaaaa
b1111111101000 aaaae
1aaaaf

#13335
0aaaaa

#13350
1aaaaa
0aaaai

#13365
0aaaaa

#13380
1aaaaa

#13395
0aaaaa

#13410
1aaaaa

#13425
0aaaaa

#13440
1aaaaa

#13455
0aaaaa

#13470
1aaaaa
0aaaaf

#13485
0aaaaa

#13500
1aaaaa

#13515
0aaaaa

#13530
1aaaaa
1aaaai

#13545
0aaaaa

#13560
1aaaaa
b10001011111110 aaaae
1aaaaf

#13575
0aaaaa

#13590
1aaaaa
0aaaai

#13605
0aaaaa

#13620
1aaaaa

#13635
0aaaaa

#13650
1aaaaa
b11 aaaac

#13665
0aaaaa

#13680
1aaaaa

#13695
0aaaaa

#13710
1aaaaa
0aaaaf

#13725
0aaaaa

#13740
1aaaaa

#13755
0aaaaa

#13770
1aaaaa
1aaaai

#13785
0aaaaa

#13800
1aaaaa
b11001100101110 aaaae
1aaaaf

#13815
0aaaaa

#13830
1aaaaa
0aaaai

#13845
0aaaaa

#13860
1aaaaa

#13875
0aaaaa

#13890
1aaaaa

#13905
0aaaaa

#13920
1aaaaa

#13935
0aaaaa

#13950
1aaaaa
0aaaaf

#13965
0aaaaa

#13980
1aaaaa

#13995
0aaaaa

#14010
1aaaaa
1aaaai

#14025
0aaaaa

#14040
1aaaaa
b100100000010001 aaaae
1aaaaf

#14055
0aaaaa

#14070
1aaaaa
0aaaai

#14085
0aaaaa

#14100
1aaaaa

#14115
0aaaaa

#14130
1aaaaa

#14145
0aaaaa

#14160
1aaaaa

#14175
0aaaaa

#14190
1aaaaa
0aaaaf

#14205
0aaaaa

#14220
1aaaaa

#14235
0aaaaa

#14250
1aaaaa
1aaaai

#14265
0aaaaa

#14280
1aaaaa
b101011011001111 aaaae
1aaaaf

#14295
0aaaaa

#14310
1aaaaa
0aaaai

#14325
0aaaaa

#14340
1aaaaa

#14355
0aaaaa

#14370
1aaaaa

#14385
0aaaaa

#14400
1aaaaa

#14415
0aaaaa

#14430
1aaaaa
0aaaaf

#14445
0aaaaa

#14460
1aaaaa

#14475
0aaaaa

#14490
1aaaaa
1aaaai

#14505
0aaaaa

#14520
1aaaaa
b101011101100111 aaaae
1aaaaf

#14535
0aaaaa

#14550
1aaaaa
0aaaai

#14565
0aaaaa

#14580
1aaaaa

#14595
0aaaaa

#14610
1aaaaa

#14625
0aaaaa

#14640
1aaaaa

#14655
0aaaaa

#14670
1aaaaa
0aaaaf

#14685
0aaaaa

#14700
1aaaaa

#14715
0aaaaa

#14730
1aaaaa
1aaaai

#14745
0aaaaa

#14760
1aaaaa
b100100010010111 aaaae
1aaaaf

#14775
0aaaaa

#14790
1aaaaa
0aaaai

#14805
0aaaaa

#14820
1aaaaa

#14835
0aaaaa

#14850
1aaaaa

#14865
0aaaaa

#14880
1aaaaa

#14895
0aaaaa

#14910
1aaaaa
0aaaaf

#14925
0aaaaa

#14940
1aaaaa

#14955
0aaaaa

#14970
1aaaaa
1aaaai

#14985
0aaaaa

#15000
1aaaaa
b11000001110111 aaaae
1aaaaf

#15015
0aaaaa

#15030
1aaaaa
0aaaai

#15045
0aaaaa

#15060
1aaaaa

#15075
0aaaaa

#15090
1aaaaa

#15105
0aaaaa

#15120
1aaaaa

#15135
0aaaaa

#15150
1aaaaa
b10 aaaac
0aaaaf

#15165
0aaaaa

#15180
1aaaaa

#15195
0aaaaa

#15210
1aaaaa

#15225
0aaaaa

#15240
1aaaaa

#15255
0aaaaa

#15270
1aaaaa

#15285
0aaaaa

#15300
1aaaaa

#15315
0aaaaa

#15330
1aaaaa

#15345
0aaaaa

#15360
1aaaaa

#15375
0aaaaa

#15390
1aaaaa

#15405
0aaaaa

#15420
1aaaaa

#15435
0aaaaa

#15450
1aaaaa

#15465
0aaaaa

#15480
1aaaaa

#15495
0aaaaa

#15510
1aaaaa

#15525
0aaaaa

#15540
1aaaaa

#15555
0aaaaa

#15570
1aaaaa

#15585
0aaaaa

#15600
1aaaaa

#15615
0aaaaa

#15630
1aaaaa

#15645
0aaaaa

#15660
1aaaaa

#15675
0aaaaa

#15690
1aaaaa

#15705
0aaaaa

#15720
1aaaaa
b11000110111000 aaaah
1aaaaj

#15735
0aaaaa

#15750
1aaaaa
1aaaag

#15765
0aaaaa

#15780
1aaaaa
0aaaaj

#15795
0aaaaa

#15810
1aaaaa

#15825
0aaaaa

#15840
1aaaaa

#15855
0aaaaa

#15870
1aaaaa

#15885
0aaaaa

#15900
1aaaaa
0aaaag

#15915
0aaaaa

#15930
1aaaaa

#15945
0aaaaa

#15960
1aaaaa
b11001110011010 aaaah
1aaaaj

#15975
0aaaaa

#15990
1aaaaa
1aaaag

#16005
0aaaaa

#16020
1aaaaa
0aaaaj

#16035
0aaaaa

#16050
1aaaaa

#16065
0aaaaa

#16080
1aaaaa

#16095
0aaaaa

#16110
1aaaaa

#16125
0aaaaa

#16140
1aaaaa
0aaaag

#16155
0aaaaa

#16170
1aaaaa

#16185
0aaaaa

#16200
1aaaaa
b11010011100011 aaaah
1aaaaj

#16215
0aaaaa

#16230
1aaaaa
1aaaag

#16245
0aaaaa

#16260
1aaaaa
0aaaaj

#16275
0aaaaa

#16290
1aaaaa

#16305
0aaaaa

#16320
1aaaaa

#16335
0aaaaa

#16350
1aaaaa

#16365
0aaaaa

#16380
1aaaaa
0aaaag

#16395
0aaaaa

#16410
1aaaaa

#16425
0aaaaa

#16440
1aaaaa
b11010111101011 aaaah
1aaaaj

#16455
0aaaaa

#16470
1aaaaa
1aaaag

#16485
0aaaaa

#16500
1aaaaa
0aaaaj

#16515
0aaaaa

#16530
1aaaaa

#16545
0aaaaa

#16560
1aaaaa

#16575
0aaaaa

#16590
1aaaaa

#16605
0aaaaa

#16620
1aaaaa
0aaaag

#16635
0aaaaa

#16650
1aaaaa

#16665
0aaaaa

#16680
1aaaaa
b11011100001111 aaaah
1aaaaj

#16695
0aaaaa

#16710
1aaaaa
1aaaag

#16725
0aaaaa

#16740
1aaaaa
0aaaaj

#16755
0aaaaa

