examples/Buttons/DebounceWave.vcd
$date
     Oct 23, 2014       23:00:57
$end

$version
 SystemC 2.3.1-Accellera --- Oct 20 2014 22:06:05
$end

$timescale
     1 ns
$end

$scope module SystemC $end
$var wire    1  aaaaa  clk       $end
$var wire    1  aaaab  input1       $end
$var wire    1  aaaac  input2       $end
$var wire    1  aaaad  input3       $end
$var wire    1  aaaae  input4       $end
$var wire    1  aaaaf  input5       $end
$var wire    1  aaaag  output1       $end
$var wire    1  aaaah  output2       $end
$var wire    1  aaaai  output3       $end
$var wire    1  aaaaj  output4       $end
$var wire    1  aaaak  output5       $end
$upscope $end
$enddefinitions  $end

$comment
All initial values are dumped below at time 0 sec = 0 timescale units.
$end

$dumpvars
1aaaaa
1aaaab
1aaaac
1aaaad
1aaaae
1aaaaf
xaaaag
xaaaah
xaaaai
xaaaaj
xaaaak
$end

#500000
0aaaaa

#1000000
1aaaaa

#1001000
0aaaab
0aaaac
0aaaad
0aaaae
0aaaaf

#1500000
0aaaaa

#2000000
1aaaaa
1aaaab
1aaaac
1aaaad
1aaaae
1aaaaf

#2500000
0aaaaa

#3000000
1aaaaa

#3001000
0aaaab
0aaaac
0aaaad
0aaaae
0aaaaf

#3500000
0aaaaa

#4000000
1aaaaa
1aaaab
1aaaac
1aaaad
1aaaae
1aaaaf

#4500000
0aaaaa

#5000000
1aaaaa

#5500000
0aaaaa

#6000000
1aaaaa

#6500000
0aaaaa

#7000000
1aaaaa

#7500000
0aaaaa

#8000000
1aaaaa

#8500000
0aaaaa

#9000000
1aaaaa

#9500000
0aaaaa

#10000000
1aaaaa

#10500000
0aaaaa

#11000000
1aaaaa

#11500000
0aaaaa

#12000000
1aaaaa

#12500000
0aaaaa

#13000000
1aaaaa

#13500000
0aaaaa

#14000000
1aaaaa
0aaaab
0aaaac
0aaaad
0aaaae
0aaaaf

#14500000
0aaaaa

#15000000
1aaaaa

#15500000
0aaaaa

#16000000
1aaaaa

#16500000
0aaaaa

#17000000
1aaaaa
0aaaag
0aaaah
0aaaai
0aaaaj
0aaaak

#17500000
0aaaaa

#18000000
1aaaaa

#18500000
0aaaaa

#19000000
1aaaaa

#19500000
0aaaaa

#20000000
1aaaaa

#20500000
0aaaaa

#21000000
1aaaaa

#21500000
0aaaaa

#22000000
1aaaaa

#22500000
0aaaaa

#23000000
1aaaaa

#23500000
0aaaaa

#24000000
1aaaaa
1aaaab
1aaaac
1aaaad
1aaaae
1aaaaf

#24500000
0aaaaa

#25000000
1aaaaa

#25001000
0aaaab
0aaaac
0aaaad
0aaaae
0aaaaf

#25500000
0aaaaa

#26000000
1aaaaa
1aaaab
1aaaac
1aaaad
1aaaae
1aaaaf

#26500000
0aaaaa

#27000000
1aaaaa
1aaaag
1aaaah
1aaaai
1aaaaj
1aaaak

#27001000
0aaaab
0aaaac
0aaaad
0aaaae
0aaaaf

#27500000
0aaaaa

#28000000
1aaaaa
1aaaab
1aaaac
1aaaad
1aaaae
1aaaaf

#28500000
0aaaaa

#29000000
1aaaaa

#29500000
0aaaaa

#30000000
1aaaaa

#30500000
0aaaaa

#31000000
1aaaaa

#31500000
0aaaaa

#32000000
1aaaaa

#32500000
0aaaaa

#33000000
1aaaaa

#33500000
0aaaaa

#34000000
1aaaaa

#34500000
0aaaaa

#35000000
1aaaaa

#35500000
0aaaaa

#36000000
1aaaaa

#36500000
0aaaaa

#37000000
1aaaaa

#37500000
0aaaaa

#38000000
1aaaaa
0aaaab
0aaaac
0aaaad
0aaaae
0aaaaf

#38500000
0aaaaa

#39000000
1aaaaa

#39500000
0aaaaa

#40000000
1aaaaa

#40500000
0aaaaa

#41000000
1aaaaa
0aaaag
0aaaah
0aaaai
0aaaaj
0aaaak

#41500000
0aaaaa

#42000000
1aaaaa

#42500000
0aaaaa

#43000000
1aaaaa

#43500000
0aaaaa

#44000000
1aaaaa

#44500000
0aaaaa

#45000000
1aaaaa

#45500000
0aaaaa

#46000000
1aaaaa

#46500000
0aaaaa

#47000000
1aaaaa

#47500000
0aaaaa

#48000000
1aaaaa
1aaaab
1aaaac
1aaaad
1aaaae
1aaaaf

#48500000
0aaaaa

#49000000
1aaaaa

#49001000
0aaaab
0aaaac
0aaaad
0aaaae
0aaaaf

#49500000
0aaaaa

#50000000
1aaaaa
1aaaab
1aaaac
1aaaad
1aaaae
1aaaaf

#50500000
0aaaaa

#51000000
1aaaaa
1aaaag
1aaaah
1aaaai
1aaaaj
1aaaak

#51001000
0aaaab
0aaaac
0aaaad
0aaaae
0aaaaf

#51500000
0aaaaa

#52000000
1aaaaa
1aaaab
1aaaac
1aaaad
1aaaae
1aaaaf

#52500000
0aaaaa

#53000000
1aaaaa

#53500000
0aaaaa

#54000000
1aaaaa

#54500000
0aaaaa

#55000000
1aaaaa

#55500000
0aaaaa

#56000000
1aaaaa

#56500000
0aaaaa

#57000000
1aaaaa

#57500000
0aaaaa

#58000000
1aaaaa

#58500000
0aaaaa

#59000000
1aaaaa

#59500000
0aaaaa

#60000000
1aaaaa

#60500000
0aaaaa

#61000000
1aaaaa

#61500000
0aaaaa

#62000000
1aaaaa
0aaaab
0aaaac
0aaaad
0aaaae
0aaaaf

#62500000
0aaaaa

#63000000
1aaaaa

#63500000
0aaaaa

#64000000
1aaaaa

#64500000
0aaaaa

#65000000
1aaaaa
0aaaag
0aaaah
0aaaai
0aaaaj
0aaaak

#65500000
0aaaaa

#66000000
1aaaaa

#66500000
0aaaaa

#67000000
1aaaaa

#67500000
0aaaaa

#68000000
1aaaaa

#68500000
0aaaaa

#69000000
1aaaaa

#69500000
0aaaaa

#70000000
1aaaaa

#70500000
0aaaaa

#71000000
1aaaaa

#71500000
0aaaaa

#72000000
1aaaaa
1aaaab
1aaaac
1aaaad
1aaaae
1aaaaf

#72500000
0aaaaa

#73000000
1aaaaa

#73001000
0aaaab
0aaaac
0aaaad
0aaaae
0aaaaf

#73500000
0aaaaa

#74000000
1aaaaa
1aaaab
1aaaac
1aaaad
1aaaae
1aaaaf

#74500000
0aaaaa

#75000000
1aaaaa
1aaaag
1aaaah
1aaaai
1aaaaj
1aaaak

#75001000
0aaaab
0aaaac
0aaaad
0aaaae
0aaaaf

#75500000
0aaaaa

#76000000
1aaaaa
1aaaab
1aaaac
1aaaad
1aaaae
1aaaaf

#76500000
0aaaaa

#77000000
1aaaaa

#77500000
0aaaaa

#78000000
1aaaaa

#78500000
0aaaaa

#79000000
1aaaaa

#79500000
0aaaaa

#80000000
1aaaaa

#80500000
0aaaaa

#81000000
1aaaaa

#81500000
0aaaaa

#82000000
1aaaaa

#82500000
0aaaaa

#83000000
1aaaaa

#83500000
0aaaaa

#84000000
1aaaaa

#84500000
0aaaaa

#85000000
1aaaaa

#85500000
0aaaaa

#86000000
1aaaaa
0aaaab
0aaaac
0aaaad
0aaaae
0aaaaf

#86500000
0aaaaa

#87000000
1aaaaa

#87500000
0aaaaa

#88000000
1aaaaa

#88500000
0aaaaa

#89000000
1aaaaa
0aaaag
0aaaah
0aaaai
0aaaaj
0aaaak

#89500000
0aaaaa

#90000000
1aaaaa

#90500000
0aaaaa

#91000000
1aaaaa

#91500000
0aaaaa

#92000000
1aaaaa

#92500000
0aaaaa

#93000000
1aaaaa

#93500000
0aaaaa

#94000000
1aaaaa

#94500000
0aaaaa

#95000000
1aaaaa

#95500000
0aaaaa

#96000000
1aaaaa
1aaaab
1aaaac
1aaaad
1aaaae
1aaaaf

#96500000
0aaaaa

#97000000
1aaaaa

#97001000
0aaaab
0aaaac
0aaaad
0aaaae
0aaaaf

#97500000
0aaaaa

#98000000
1aaaaa
1aaaab
1aaaac
1aaaad
1aaaae
1aaaaf

#98500000
0aaaaa

#99000000
1aaaaa
1aaaag
1aaaah
1aaaai
1aaaaj
1aaaak

#99001000
0aaaab
0aaaac
0aaaad
0aaaae
0aaaaf

#99500000
0aaaaa

#100000000
1aaaaa
1aaaab
1aaaac
1aaaad
1aaaae
1aaaaf

#100500000
0aaaaa

#101000000
1aaaaa

#101500000
0aaaaa

#102000000
1aaaaa

#102500000
0aaaaa

#103000000
1aaaaa

#103500000
0aaaaa

#104000000
1aaaaa

#104500000
0aaaaa

#105000000
1aaaaa

#105500000
0aaaaa

#106000000
1aaaaa

#106500000
0aaaaa

#107000000
1aaaaa

#107500000
0aaaaa

#108000000
1aaaaa

#108500000
0aaaaa

#109000000
1aaaaa

#109500000
0aaaaa

#110000000
1aaaaa
0aaaab
0aaaac
0aaaad
0aaaae
0aaaaf

#110500000
0aaaaa

#111000000
1aaaaa

#111500000
0aaaaa

#112000000
1aaaaa

#112500000
0aaaaa

#113000000
1aaaaa
0aaaag
0aaaah
0aaaai
0aaaaj
0aaaak

#113500000
0aaaaa

#114000000
1aaaaa

#114500000
0aaaaa

#115000000
1aaaaa

#115500000
0aaaaa

#116000000
1aaaaa

#116500000
0aaaaa

#117000000
1aaaaa

#117500000
0aaaaa

#118000000
1aaaaa

#118500000
0aaaaa

#119000000
1aaaaa

#119500000
0aaaaa

#120000000
1aaaaa
1aaaab
1aaaac
1aaaad
1aaaae
1aaaaf

#120500000
0aaaaa

#121000000
1aaaaa

#121001000
0aaaab
0aaaac
0aaaad
0aaaae
0aaaaf

#121500000
0aaaaa

#122000000
1aaaaa
1aaaab
1aaaac
1aaaad
1aaaae
1aaaaf

#122500000
0aaaaa

#123000000
1aaaaa
1aaaag
1aaaah
1aaaai
1aaaaj
1aaaak

#123001000
0aaaab
0aaaac
0aaaad
0aaaae
0aaaaf

#123500000
0aaaaa

#124000000
1aaaaa
1aaaab
1aaaac
1aaaad
1aaaae
1aaaaf

#124500000
0aaaaa

#125000000
1aaaaa

#125500000
0aaaaa

#126000000
1aaaaa

#126500000
0aaaaa

#127000000
1aaaaa

#127500000
0aaaaa

#128000000
1aaaaa

#128500000
0aaaaa

#129000000
1aaaaa

#129500000
0aaaaa

#130000000
1aaaaa

#130500000
0aaaaa

#131000000
1aaaaa

#131500000
0aaaaa

#132000000
1aaaaa

#132500000
0aaaaa

#133000000
1aaaaa

#133500000
0aaaaa

#134000000
1aaaaa
0aaaab
0aaaac
0aaaad
0aaaae
0aaaaf

#134500000
0aaaaa

#135000000
1aaaaa

#135500000
0aaaaa

#136000000
1aaaaa

#136500000
0aaaaa

#137000000
1aaaaa
0aaaag
0aaaah
0aaaai
0aaaaj
0aaaak

#137500000
0aaaaa

#138000000
1aaaaa

#138500000
0aaaaa

#139000000
1aaaaa

#139500000
0aaaaa

#140000000
1aaaaa

#140500000
0aaaaa

#141000000
1aaaaa

#141500000
0aaaaa

#142000000
1aaaaa

#142500000
0aaaaa

#143000000
1aaaaa

#143500000
0aaaaa

#144000000
1aaaaa
1aaaab
1aaaac
1aaaad
1aaaae
1aaaaf

#144500000
0aaaaa

#145000000
1aaaaa

#145001000
0aaaab
0aaaac
0aaaad
0aaaae
0aaaaf

#145500000
0aaaaa

#146000000
1aaaaa
1aaaab
1aaaac
1aaaad
1aaaae
1aaaaf

#146500000
0aaaaa

#147000000
1aaaaa
1aaaag
1aaaah
1aaaai
1aaaaj
1aaaak

#147001000
0aaaab
0aaaac
0aaaad
0aaaae
0aaaaf

#147500000
0aaaaa

#148000000
1aaaaa
1aaaab
1aaaac
1aaaad
1aaaae
1aaaaf

#148500000
0aaaaa

#149000000
1aaaaa

#149500000
0aaaaa

#150000000
1aaaaa

#150500000
0aaaaa

#151000000
1aaaaa

#151500000
0aaaaa

#152000000
1aaaaa

#152500000
0aaaaa

#153000000
1aaaaa

#153500000
0aaaaa

#154000000
1aaaaa

#154500000
0aaaaa

#155000000
1aaaaa

#155500000
0aaaaa

#156000000
1aaaaa

#156500000
0aaaaa

#157000000
1aaaaa

#157500000
0aaaaa

#158000000
1aaaaa
0aaaab
0aaaac
0aaaad
0aaaae
0aaaaf

#158500000
0aaaaa

#159000000
1aaaaa

#159500000
0aaaaa

#160000000
1aaaaa

#160500000
0aaaaa

#161000000
1aaaaa
0aaaag
0aaaah
0aaaai
0aaaaj
0aaaak

#161500000
0aaaaa

#162000000
1aaaaa

#162500000
0aaaaa

#163000000
1aaaaa

#163500000
0aaaaa

#164000000
1aaaaa

#164500000
0aaaaa

#165000000
1aaaaa

#165500000
0aaaaa

#166000000
1aaaaa

#166500000
0aaaaa

#167000000
1aaaaa

#167500000
0aaaaa

#168000000
1aaaaa
1aaaab
1aaaac
1aaaad
1aaaae
1aaaaf

#168500000
0aaaaa

#169000000
1aaaaa

#169001000
0aaaab
0aaaac
0aaaad
0aaaae
0aaaaf

#169500000
0aaaaa

#170000000
1aaaaa
1aaaab
1aaaac
1aaaad
1aaaae
1aaaaf

#170500000
0aaaaa

#171000000
1aaaaa
1aaaag
1aaaah
1aaaai
1aaaaj
1aaaak

#171001000
0aaaab
0aaaac
0aaaad
0aaaae
0aaaaf

#171500000
0aaaaa

#172000000
1aaaaa
1aaaab
1aaaac
1aaaad
1aaaae
1aaaaf

#172500000
0aaaaa

#173000000
1aaaaa

#173500000
0aaaaa

#174000000
1aaaaa

#174500000
0aaaaa

#175000000
1aaaaa

#175500000
0aaaaa

#176000000
1aaaaa

#176500000
0aaaaa

#177000000
1aaaaa

#177500000
0aaaaa

#178000000
1aaaaa

#178500000
0aaaaa

#179000000
1aaaaa

#179500000
0aaaaa

#180000000
1aaaaa

#180500000
0aaaaa

#181000000
1aaaaa

#181500000
0aaaaa

#182000000
1aaaaa
0aaaab
0aaaac
0aaaad
0aaaae
0aaaaf

#182500000
0aaaaa

#183000000
1aaaaa

#183500000
0aaaaa

#184000000
1aaaaa

#184500000
0aaaaa

#185000000
1aaaaa
0aaaag
0aaaah
0aaaai
0aaaaj
0aaaak

#185500000
0aaaaa

#186000000
1aaaaa

#186500000
0aaaaa

#187000000
1aaaaa

#187500000
0aaaaa

#188000000
1aaaaa

#188500000
0aaaaa

#189000000
1aaaaa

#189500000
0aaaaa

#190000000
1aaaaa

#190500000
0aaaaa

#191000000
1aaaaa

#191500000
0aaaaa

#192000000
1aaaaa
1aaaab
1aaaac
1aaaad
1aaaae
1aaaaf

#192500000
0aaaaa

#193000000
1aaaaa

#193001000
0aaaab
0aaaac
0aaaad
0aaaae
0aaaaf

#193500000
0aaaaa

#194000000
1aaaaa
1aaaab
1aaaac
1aaaad
1aaaae
1aaaaf

#194500000
0aaaaa

#195000000
1aaaaa
1aaaag
1aaaah
1aaaai
1aaaaj
1aaaak

#195001000
0aaaab
0aaaac
0aaaad
0aaaae
0aaaaf

#195500000
0aaaaa

#196000000
1aaaaa
1aaaab
1aaaac
1aaaad
1aaaae
1aaaaf

#196500000
0aaaaa

#197000000
1aaaaa

#197500000
0aaaaa

#198000000
1aaaaa

#198500000
0aaaaa

#199000000
1aaaaa

#199500000
0aaaaa

#200000000
1aaaaa

#200500000
0aaaaa

#201000000
1aaaaa

#201500000
0aaaaa

#202000000
1aaaaa

#202500000
0aaaaa

#203000000
1aaaaa

#203500000
0aaaaa

#204000000
1aaaaa

#204500000
0aaaaa

#205000000
1aaaaa

#205500000
0aaaaa

#206000000
1aaaaa
0aaaab
0aaaac
0aaaad
0aaaae
0aaaaf

#206500000
0aaaaa

#207000000
1aaaaa

#207500000
0aaaaa

#208000000
1aaaaa

#208500000
0aaaaa

#209000000
1aaaaa
0aaaag
0aaaah
0aaaai
0aaaaj
0aaaak

#209500000
0aaaaa

#210000000
1aaaaa

#210500000
0aaaaa

#211000000
1aaaaa

#211500000
0aaaaa

#212000000
1aaaaa

#212500000
0aaaaa

#213000000
1aaaaa

#213500000
0aaaaa

#214000000
1aaaaa

#214500000
0aaaaa

#215000000
1aaaaa

#215500000
0aaaaa

#216000000
1aaaaa
1aaaab
1aaaac
1aaaad
1aaaae
1aaaaf

#216500000
0aaaaa

#217000000
1aaaaa

#217001000
0aaaab
0aaaac
0aaaad
0aaaae
0aaaaf

#217500000
0aaaaa

#218000000
1aaaaa
1aaaab
1aaaac
1aaaad
1aaaae
1aaaaf

#218500000
0aaaaa

#219000000
1aaaaa
1aaaag
1aaaah
1aaaai
1aaaaj
1aaaak

#219001000
0aaaab
0aaaac
0aaaad
0aaaae
0aaaaf

#219500000
0aaaaa

#220000000
1aaaaa
1aaaab
1aaaac
1aaaad
1aaaae
1aaaaf

#220500000
0aaaaa

#221000000
1aaaaa

#221500000
0aaaaa

#222000000
1aaaaa

#222500000
0aaaaa

#223000000
1aaaaa

#223500000
0aaaaa

#224000000
1aaaaa

#224500000
0aaaaa

#225000000
1aaaaa

#225500000
0aaaaa

#226000000
1aaaaa

#226500000
0aaaaa

#227000000
1aaaaa

#227500000
0aaaaa

#228000000
1aaaaa

#228500000
0aaaaa

#229000000
1aaaaa

#229500000
0aaaaa

#230000000
1aaaaa
0aaaab
0aaaac
0aaaad
0aaaae
0aaaaf

#230500000
0aaaaa

#231000000
1aaaaa

#231500000
0aaaaa

#232000000
1aaaaa

#232500000
0aaaaa

#233000000
1aaaaa
0aaaag
0aaaah
0aaaai
0aaaaj
0aaaak

